<?xml version="1.0" standalone="no"?>
<!DOCTYPE svg PUBLIC "-//W3C//DTD SVG 1.1//EN" "http://www.w3.org/Graphics/SVG/1.1/DTD/svg11.dtd">
<svg xmlns="http://www.w3.org/2000/svg" width="383.000m" height="83.476m" viewBox="0 0 383.000 83.476">
	<g id="Enclosure panel - lower, front upper">
		<path style="fill:rgb(6,6,6);" d="M0.000,-0.000L0.000,67.621L0.000,83.476L11.859,83.476L383.000,83.476L383.000,-0.000ZM337.251,9.476C337.251,8.510 338.034,7.726 339.001,7.726C339.967,7.726 340.751,8.510 340.751,9.476C340.751,10.442 339.967,11.226 339.001,11.226C338.034,11.226 337.251,10.442 337.251,9.476ZM47.251,9.476C47.251,8.510 48.034,7.726 49.001,7.726C49.967,7.726 50.751,8.510 50.751,9.476C50.751,10.442 49.967,11.226 49.001,11.226C48.034,11.226 47.251,10.442 47.251,9.476ZM7.251,69.476C7.251,68.510 8.034,67.726 9.001,67.726C9.967,67.726 10.751,68.510 10.751,69.476C10.751,70.442 9.967,71.226 9.001,71.226C8.034,71.226 7.251,70.442 7.251,69.476Z"/>
	</g>
</svg>