<?xml version="1.0" standalone="no"?>
<!DOCTYPE svg PUBLIC "-//W3C//DTD SVG 1.1//EN" "http://www.w3.org/Graphics/SVG/1.1/DTD/svg11.dtd">
<svg xmlns="http://www.w3.org/2000/svg" width="471.000m" height="441.000m" viewBox="0 0 471.000 441.000">
	<g id="Enclosure panel - lower, bottom">
		<path style="fill:rgb(6,6,6);" d="M390.034,25.386L390.000,0.000L278.330,-0.000L278.330,13.899L275.090,17.139L269.342,17.139L251.227,35.253L218.773,35.253L200.658,17.139L194.910,17.139L191.670,13.899L191.670,-0.000L80.000,0.000L79.966,25.386C78.720,33.788 67.280,33.788 66.034,25.386L66.000,0.000L49.500,0.000L33.000,0.000L7.000,0.000L7.000,7.000L0.000,7.000L0.000,220.500L0.000,434.000L7.000,434.000L7.000,441.000L235.500,441.000L464.000,441.000L464.000,434.000L471.000,434.000L471.000,285.178L471.000,207.267L471.000,129.356L430.254,129.356L430.255,0.000L404.000,0.000L403.966,25.386C402.720,33.789 391.280,33.789 390.034,25.386Z"/>
	</g>
</svg>