<?xml version="1.0" standalone="no"?>
<!DOCTYPE svg PUBLIC "-//W3C//DTD SVG 1.1//EN" "http://www.w3.org/Graphics/SVG/1.1/DTD/svg11.dtd">
<svg xmlns="http://www.w3.org/2000/svg" width="476.000m" height="446.000m" viewBox="0 0 476.000 446.000">
	<g id="Enclosure panel - upper, top">
		<path style="fill:rgb(6,6,6);" d="M0.000,-0.000L0.000,446.000L476.000,446.000L476.000,-0.000ZM462.500,434.250C462.500,433.284 463.284,432.500 464.250,432.500C465.216,432.500 466.000,433.284 466.000,434.250C466.000,435.216 465.216,436.000 464.250,436.000C463.284,436.000 462.500,435.216 462.500,434.250ZM462.500,11.750C462.500,10.784 463.284,10.000 464.250,10.000C465.216,10.000 466.000,10.784 466.000,11.750C466.000,12.716 465.216,13.500 464.250,13.500C463.284,13.500 462.500,12.716 462.500,11.750ZM10.000,11.750C10.000,10.784 10.784,10.000 11.750,10.000C12.716,10.000 13.500,10.784 13.500,11.750C13.500,12.716 12.716,13.500 11.750,13.500C10.784,13.500 10.000,12.716 10.000,11.750ZM10.000,434.250C10.000,433.284 10.784,432.500 11.750,432.500C12.716,432.500 13.500,433.284 13.500,434.250C13.500,435.216 12.716,436.000 11.750,436.000C10.784,436.000 10.000,435.216 10.000,434.250Z"/>
	</g>
</svg>